ISO-10303-21;
HEADER;
FILE_DESCRIPTION (( 'STEP AP214' ),
    '1' );
FILE_NAME ('CT_PNO5004NR.STEP',
    '2020-08-06T18:32:13',
    ( '' ),
    ( '' ),
    'SwSTEP 2.0',
    'SolidWorks 2016',
    '' );
FILE_SCHEMA (( 'AUTOMOTIVE_DESIGN' ));
ENDSEC;

DATA;
#1 = MANIFOLD_SOLID_BREP ( 'Boss-Extrude1', #128 ) ;
#2 = EDGE_LOOP ( 'NONE', ( #69, #56 ) ) ;
#3 = ORIENTED_EDGE ( 'NONE', *, *, #102, .F. ) ;
#4 = AXIS2_PLACEMENT_3D ( 'NONE', #136, #36, #49 ) ;
#5 = DIRECTION ( 'NONE',  ( -1.000000000000000000, 0.0000000000000000000, 0.0000000000000000000 ) ) ;
#6 = CARTESIAN_POINT ( 'NONE',  ( -1.750000000000000000, 0.0000000000000000000, 0.0000000000000000000 ) ) ;
#7 =( NAMED_UNIT ( * ) SI_UNIT ( $, .STERADIAN. ) SOLID_ANGLE_UNIT ( ) );
#8 = STYLED_ITEM ( 'NONE', ( #10 ), #1 ) ;
#9 = CARTESIAN_POINT ( 'NONE',  ( 0.0000000000000000000, 0.0000000000000000000, 0.0000000000000000000 ) ) ;
#10 = PRESENTATION_STYLE_ASSIGNMENT (( #118 ) ) ;
#11 = MECHANICAL_DESIGN_GEOMETRIC_PRESENTATION_REPRESENTATION (  '', ( #8 ), #15 ) ;
#12 = FACE_OUTER_BOUND ( 'NONE', #58, .T. ) ;
#13 = MECHANICAL_DESIGN_GEOMETRIC_PRESENTATION_REPRESENTATION (  '', ( #67 ), #32 ) ;
#14 = COLOUR_RGB ( '',0.7529411764705882200, 0.7529411764705882200, 0.7529411764705882200 ) ;
#15 =( GEOMETRIC_REPRESENTATION_CONTEXT ( 3 ) GLOBAL_UNCERTAINTY_ASSIGNED_CONTEXT ( ( #109 ) ) GLOBAL_UNIT_ASSIGNED_CONTEXT ( ( #107, #39, #106 ) ) REPRESENTATION_CONTEXT ( 'NONE', 'WORKASPACE' ) );
#16 = CARTESIAN_POINT ( 'NONE',  ( 0.0000000000000000000, 0.0000000000000000000, 250.0000000000000000 ) ) ;
#17 = DIRECTION ( 'NONE',  ( 0.0000000000000000000, 0.0000000000000000000, 1.000000000000000000 ) ) ;
#18 =( LENGTH_UNIT ( ) NAMED_UNIT ( * ) SI_UNIT ( .MILLI., .METRE. ) );
#19 =( GEOMETRIC_REPRESENTATION_CONTEXT ( 3 ) GLOBAL_UNCERTAINTY_ASSIGNED_CONTEXT ( ( #131 ) ) GLOBAL_UNIT_ASSIGNED_CONTEXT ( ( #27, #51, #139 ) ) REPRESENTATION_CONTEXT ( 'NONE', 'WORKASPACE' ) );
#20 = ORIENTED_EDGE ( 'NONE', *, *, #80, .F. ) ;
#21 = ORIENTED_EDGE ( 'NONE', *, *, #80, .T. ) ;
#22 = EDGE_LOOP ( 'NONE', ( #50, #122, #21, #94 ) ) ;
#23 = DIRECTION ( 'NONE',  ( 1.000000000000000000, 0.0000000000000000000, 0.0000000000000000000 ) ) ;
#24 = CARTESIAN_POINT ( 'NONE',  ( 0.0000000000000000000, 0.0000000000000000000, 0.0000000000000000000 ) ) ;
#25 = CARTESIAN_POINT ( 'NONE',  ( -1.750000000000000000, 0.0000000000000000000, 250.0000000000000000 ) ) ;
#26 = DIRECTION ( 'NONE',  ( -0.0000000000000000000, -0.0000000000000000000, -1.000000000000000000 ) ) ;
#27 =( LENGTH_UNIT ( ) NAMED_UNIT ( * ) SI_UNIT ( .MILLI., .METRE. ) );
#28 = AXIS2_PLACEMENT_3D ( 'NONE', #9, #127, #89 ) ;
#29 = VERTEX_POINT ( 'NONE', #59 ) ;
#30 = CYLINDRICAL_SURFACE ( 'NONE', #48, 1.750000000000000000 ) ;
#31 = ADVANCED_FACE ( 'NONE', ( #40 ), #113, .T. ) ;
#32 =( GEOMETRIC_REPRESENTATION_CONTEXT ( 3 ) GLOBAL_UNCERTAINTY_ASSIGNED_CONTEXT ( ( #86 ) ) GLOBAL_UNIT_ASSIGNED_CONTEXT ( ( #18, #90, #7 ) ) REPRESENTATION_CONTEXT ( 'NONE', 'WORKASPACE' ) );
#33 = LINE ( 'NONE', #25, #104 ) ;
#34 = FACE_OUTER_BOUND ( 'NONE', #2, .T. ) ;
#35 = AXIS2_PLACEMENT_3D ( 'NONE', #137, #78, #77 ) ;
#36 = DIRECTION ( 'NONE',  ( 0.0000000000000000000, 0.0000000000000000000, 1.000000000000000000 ) ) ;
#37 = FILL_AREA_STYLE_COLOUR ( '', #98 ) ;
#38 = EDGE_CURVE ( 'NONE', #76, #29, #53, .T. ) ;
#39 =( NAMED_UNIT ( * ) PLANE_ANGLE_UNIT ( ) SI_UNIT ( $, .RADIAN. ) );
#40 = FACE_OUTER_BOUND ( 'NONE', #22, .T. ) ;
#41 = APPLICATION_CONTEXT ( 'automotive_design' ) ;
#42 = SURFACE_STYLE_USAGE ( .BOTH. , #138 ) ;
#43 = PRODUCT_DEFINITION_FORMATION_WITH_SPECIFIED_SOURCE ( 'ANY', '', #70, .NOT_KNOWN. ) ;
#44 = PRESENTATION_LAYER_ASSIGNMENT (  '', '', ( #67 ) ) ;
#45 = VERTEX_POINT ( 'NONE', #95 ) ;
#46 = SHAPE_DEFINITION_REPRESENTATION ( #72, #119 ) ;
#47 = ORIENTED_EDGE ( 'NONE', *, *, #102, .T. ) ;
#48 = AXIS2_PLACEMENT_3D ( 'NONE', #62, #73, #5 ) ;
#49 = DIRECTION ( 'NONE',  ( 1.000000000000000000, 0.0000000000000000000, -0.0000000000000000000 ) ) ;
#50 = ORIENTED_EDGE ( 'NONE', *, *, #54, .F. ) ;
#51 =( NAMED_UNIT ( * ) PLANE_ANGLE_UNIT ( ) SI_UNIT ( $, .RADIAN. ) );
#52 = PRODUCT_CONTEXT ( 'NONE', #41, 'mechanical' ) ;
#53 = CIRCLE ( 'NONE', #114, 1.750000000000000000 ) ;
#54 = EDGE_CURVE ( 'NONE', #29, #76, #110, .T. ) ;
#55 = SURFACE_STYLE_FILL_AREA ( #61 ) ;
#56 = ORIENTED_EDGE ( 'NONE', *, *, #54, .T. ) ;
#57 = AXIS2_PLACEMENT_3D ( 'NONE', #65, #17, #108 ) ;
#58 = EDGE_LOOP ( 'NONE', ( #79, #91, #83, #47 ) ) ;
#59 = CARTESIAN_POINT ( 'NONE',  ( 1.750000000000000000, 2.143131898507868300E-016, 250.0000000000000000 ) ) ;
#60 = DIRECTION ( 'NONE',  ( 0.0000000000000000000, 0.0000000000000000000, 1.000000000000000000 ) ) ;
#61 = FILL_AREA_STYLE ('',( #37 ) ) ;
#62 = CARTESIAN_POINT ( 'NONE',  ( 0.0000000000000000000, 0.0000000000000000000, 250.0000000000000000 ) ) ;
#63 = PLANE ( 'NONE',  #35 ) ;
#64 = APPLICATION_PROTOCOL_DEFINITION ( 'draft international standard', 'automotive_design', 1998, #112 ) ;
#65 = CARTESIAN_POINT ( 'NONE',  ( 0.0000000000000000000, 0.0000000000000000000, 0.0000000000000000000 ) ) ;
#66 = EDGE_LOOP ( 'NONE', ( #3, #20 ) ) ;
#67 = STYLED_ITEM ( 'NONE', ( #132 ), #119 ) ;
#68 = PRODUCT_RELATED_PRODUCT_CATEGORY ( 'part', '', ( #70 ) ) ;
#69 = ORIENTED_EDGE ( 'NONE', *, *, #38, .T. ) ;
#70 = PRODUCT ( 'CT_PNO5004NR', 'CT_PNO5004NR', '', ( #52 ) ) ;
#71 = EDGE_CURVE ( 'NONE', #29, #45, #130, .T. ) ;
#72 = PRODUCT_DEFINITION_SHAPE ( 'NONE', 'NONE',  #81 ) ;
#73 = DIRECTION ( 'NONE',  ( -0.0000000000000000000, -0.0000000000000000000, -1.000000000000000000 ) ) ;
#74 = CARTESIAN_POINT ( 'NONE',  ( 1.750000000000000000, 2.143131898507868300E-016, 250.0000000000000000 ) ) ;
#75 = PLANE ( 'NONE',  #4 ) ;
#76 = VERTEX_POINT ( 'NONE', #126 ) ;
#77 = DIRECTION ( 'NONE',  ( 1.000000000000000000, 0.0000000000000000000, -0.0000000000000000000 ) ) ;
#78 = DIRECTION ( 'NONE',  ( 0.0000000000000000000, 0.0000000000000000000, 1.000000000000000000 ) ) ;
#79 = ORIENTED_EDGE ( 'NONE', *, *, #71, .F. ) ;
#80 = EDGE_CURVE ( 'NONE', #45, #116, #133, .T. ) ;
#81 = PRODUCT_DEFINITION ( 'UNKNOWN', '', #43, #97 ) ;
#82 = AXIS2_PLACEMENT_3D ( 'NONE', #125, #60, #23 ) ;
#83 = ORIENTED_EDGE ( 'NONE', *, *, #93, .T. ) ;
#84 = ADVANCED_FACE ( 'NONE', ( #12 ), #30, .T. ) ;
#85 = CARTESIAN_POINT ( 'NONE',  ( 0.0000000000000000000, 0.0000000000000000000, 250.0000000000000000 ) ) ;
#86 = UNCERTAINTY_MEASURE_WITH_UNIT (LENGTH_MEASURE( 1.000000000000000100E-005 ), #18, 'distance_accuracy_value', 'NONE');
#87 = DIRECTION ( 'NONE',  ( 1.000000000000000000, 0.0000000000000000000, 0.0000000000000000000 ) ) ;
#88 = DIRECTION ( 'NONE',  ( 0.0000000000000000000, 0.0000000000000000000, 1.000000000000000000 ) ) ;
#89 = DIRECTION ( 'NONE',  ( 1.000000000000000000, 0.0000000000000000000, 0.0000000000000000000 ) ) ;
#90 =( NAMED_UNIT ( * ) PLANE_ANGLE_UNIT ( ) SI_UNIT ( $, .RADIAN. ) );
#91 = ORIENTED_EDGE ( 'NONE', *, *, #38, .F. ) ;
#92 = ADVANCED_FACE ( 'NONE', ( #101 ), #75, .F. ) ;
#93 = EDGE_CURVE ( 'NONE', #76, #116, #33, .T. ) ;
#94 = ORIENTED_EDGE ( 'NONE', *, *, #93, .F. ) ;
#95 = CARTESIAN_POINT ( 'NONE',  ( 1.750000000000000000, 2.143131898507868300E-016, 0.0000000000000000000 ) ) ;
#96 = DIRECTION ( 'NONE',  ( 1.000000000000000000, 0.0000000000000000000, 0.0000000000000000000 ) ) ;
#97 = PRODUCT_DEFINITION_CONTEXT ( 'detailed design', #112, 'design' ) ;
#98 = COLOUR_RGB ( '',0.7529411764705882200, 0.7529411764705882200, 0.7529411764705882200 ) ;
#99 = SURFACE_SIDE_STYLE ('',( #140 ) ) ;
#100 = VECTOR ( 'NONE', #105, 1000.000000000000000 ) ;
#101 = FACE_OUTER_BOUND ( 'NONE', #66, .T. ) ;
#102 = EDGE_CURVE ( 'NONE', #116, #45, #115, .T. ) ;
#103 = PRESENTATION_LAYER_ASSIGNMENT (  '', '', ( #8 ) ) ;
#104 = VECTOR ( 'NONE', #129, 1000.000000000000000 ) ;
#105 = DIRECTION ( 'NONE',  ( -0.0000000000000000000, -0.0000000000000000000, -1.000000000000000000 ) ) ;
#106 =( NAMED_UNIT ( * ) SI_UNIT ( $, .STERADIAN. ) SOLID_ANGLE_UNIT ( ) );
#107 =( LENGTH_UNIT ( ) NAMED_UNIT ( * ) SI_UNIT ( .MILLI., .METRE. ) );
#108 = DIRECTION ( 'NONE',  ( 1.000000000000000000, 0.0000000000000000000, 0.0000000000000000000 ) ) ;
#109 = UNCERTAINTY_MEASURE_WITH_UNIT (LENGTH_MEASURE( 1.000000000000000100E-005 ), #107, 'distance_accuracy_value', 'NONE');
#110 = CIRCLE ( 'NONE', #82, 1.750000000000000000 ) ;
#111 = FILL_AREA_STYLE ('',( #117 ) ) ;
#112 = APPLICATION_CONTEXT ( 'automotive_design' ) ;
#113 = CYLINDRICAL_SURFACE ( 'NONE', #120, 1.750000000000000000 ) ;
#114 = AXIS2_PLACEMENT_3D ( 'NONE', #16, #134, #96 ) ;
#115 = CIRCLE ( 'NONE', #28, 1.750000000000000000 ) ;
#116 = VERTEX_POINT ( 'NONE', #6 ) ;
#117 = FILL_AREA_STYLE_COLOUR ( '', #14 ) ;
#118 = SURFACE_STYLE_USAGE ( .BOTH. , #99 ) ;
#119 = ADVANCED_BREP_SHAPE_REPRESENTATION ( 'CT_PNO5004NR', ( #1, #57 ), #19 ) ;
#120 = AXIS2_PLACEMENT_3D ( 'NONE', #85, #26, #135 ) ;
#121 = APPLICATION_PROTOCOL_DEFINITION ( 'draft international standard', 'automotive_design', 1998, #41 ) ;
#122 = ORIENTED_EDGE ( 'NONE', *, *, #71, .T. ) ;
#123 = AXIS2_PLACEMENT_3D ( 'NONE', #24, #88, #87 ) ;
#124 = ADVANCED_FACE ( 'NONE', ( #34 ), #63, .T. ) ;
#125 = CARTESIAN_POINT ( 'NONE',  ( 0.0000000000000000000, 0.0000000000000000000, 250.0000000000000000 ) ) ;
#126 = CARTESIAN_POINT ( 'NONE',  ( -1.750000000000000000, 0.0000000000000000000, 250.0000000000000000 ) ) ;
#127 = DIRECTION ( 'NONE',  ( 0.0000000000000000000, 0.0000000000000000000, 1.000000000000000000 ) ) ;
#128 = CLOSED_SHELL ( 'NONE', ( #31, #84, #124, #92 ) ) ;
#129 = DIRECTION ( 'NONE',  ( -0.0000000000000000000, -0.0000000000000000000, -1.000000000000000000 ) ) ;
#130 = LINE ( 'NONE', #74, #100 ) ;
#131 = UNCERTAINTY_MEASURE_WITH_UNIT (LENGTH_MEASURE( 1.000000000000000100E-005 ), #27, 'distance_accuracy_value', 'NONE');
#132 = PRESENTATION_STYLE_ASSIGNMENT (( #42 ) ) ;
#133 = CIRCLE ( 'NONE', #123, 1.750000000000000000 ) ;
#134 = DIRECTION ( 'NONE',  ( 0.0000000000000000000, 0.0000000000000000000, 1.000000000000000000 ) ) ;
#135 = DIRECTION ( 'NONE',  ( -1.000000000000000000, 0.0000000000000000000, 0.0000000000000000000 ) ) ;
#136 = CARTESIAN_POINT ( 'NONE',  ( 0.0000000000000000000, 0.0000000000000000000, 0.0000000000000000000 ) ) ;
#137 = CARTESIAN_POINT ( 'NONE',  ( 0.0000000000000000000, 0.0000000000000000000, 250.0000000000000000 ) ) ;
#138 = SURFACE_SIDE_STYLE ('',( #55 ) ) ;
#139 =( NAMED_UNIT ( * ) SI_UNIT ( $, .STERADIAN. ) SOLID_ANGLE_UNIT ( ) );
#140 = SURFACE_STYLE_FILL_AREA ( #111 ) ;
ENDSEC;
END-ISO-10303-21;
