ISO-10303-21;
HEADER;
FILE_DESCRIPTION (( 'STEP AP214' ),
    '1' );
FILE_NAME ('CT_PNS3004.STEP',
    '2020-08-06T18:21:04',
    ( '' ),
    ( '' ),
    'SwSTEP 2.0',
    'SolidWorks 2016',
    '' );
FILE_SCHEMA (( 'AUTOMOTIVE_DESIGN' ));
ENDSEC;

DATA;
#1 = ORIENTED_EDGE ( 'NONE', *, *, #306, .F. ) ;
#2 = ADVANCED_BREP_SHAPE_REPRESENTATION ( 'CT_PNS3004', ( #250, #312 ), #210 ) ;
#3 = EDGE_CURVE ( 'NONE', #121, #88, #109, .T. ) ;
#4 = ORIENTED_EDGE ( 'NONE', *, *, #291, .F. ) ;
#5 = VECTOR ( 'NONE', #14, 1000.000000000000000 ) ;
#6 = VECTOR ( 'NONE', #261, 1000.000000000000000 ) ;
#7 = MECHANICAL_DESIGN_GEOMETRIC_PRESENTATION_REPRESENTATION (  '', ( #273 ), #131 ) ;
#8 = ORIENTED_EDGE ( 'NONE', *, *, #134, .T. ) ;
#9 = SHAPE_DEFINITION_REPRESENTATION ( #71, #2 ) ;
#10 = DIRECTION ( 'NONE',  ( 0.0000000000000000000, 0.0000000000000000000, -1.000000000000000000 ) ) ;
#11 = SURFACE_STYLE_USAGE ( .BOTH. , #327 ) ;
#12 = DIRECTION ( 'NONE',  ( 1.000000000000000000, 0.0000000000000000000, 0.0000000000000000000 ) ) ;
#13 = ORIENTED_EDGE ( 'NONE', *, *, #77, .F. ) ;
#14 = DIRECTION ( 'NONE',  ( -0.0000000000000000000, -0.0000000000000000000, 1.000000000000000000 ) ) ;
#15 = FACE_OUTER_BOUND ( 'NONE', #19, .T. ) ;
#16 = SURFACE_SIDE_STYLE ('',( #292 ) ) ;
#17 = CARTESIAN_POINT ( 'NONE',  ( 18.50000000000000000, 18.75000000000000000, 0.7937499999999999600 ) ) ;
#18 = VERTEX_POINT ( 'NONE', #27 ) ;
#19 = EDGE_LOOP ( 'NONE', ( #246, #205, #211, #30 ) ) ;
#20 = DIRECTION ( 'NONE',  ( -0.0000000000000000000, 0.0000000000000000000, -1.000000000000000000 ) ) ;
#21 = CARTESIAN_POINT ( 'NONE',  ( 18.50000000000000000, 18.75000000000000000, 0.7937499999999999600 ) ) ;
#22 = CARTESIAN_POINT ( 'NONE',  ( 17.49999999999999600, -19.75000000000000000, 0.0000000000000000000 ) ) ;
#23 = ADVANCED_FACE ( 'NONE', ( #40 ), #47, .T. ) ;
#24 = EDGE_CURVE ( 'NONE', #272, #121, #175, .T. ) ;
#25 = LINE ( 'NONE', #146, #278 ) ;
#26 = DIRECTION ( 'NONE',  ( 1.000000000000000000, 9.376883653928687400E-017, -0.0000000000000000000 ) ) ;
#27 = CARTESIAN_POINT ( 'NONE',  ( -18.50000000000000000, -18.75000000000000400, 0.7937499999999999600 ) ) ;
#28 = LINE ( 'NONE', #183, #172 ) ;
#29 = CARTESIAN_POINT ( 'NONE',  ( 18.50000000000000000, -19.75000000000000000, 0.7937499999999999600 ) ) ;
#30 = ORIENTED_EDGE ( 'NONE', *, *, #3, .T. ) ;
#31 = ORIENTED_EDGE ( 'NONE', *, *, #220, .T. ) ;
#32 = PRODUCT_DEFINITION_FORMATION_WITH_SPECIFIED_SOURCE ( 'ANY', '', #179, .NOT_KNOWN. ) ;
#33 = ORIENTED_EDGE ( 'NONE', *, *, #112, .F. ) ;
#34 = VECTOR ( 'NONE', #10, 1000.000000000000000 ) ;
#35 = VECTOR ( 'NONE', #338, 1000.000000000000000 ) ;
#36 = ORIENTED_EDGE ( 'NONE', *, *, #329, .T. ) ;
#37 = ORIENTED_EDGE ( 'NONE', *, *, #150, .T. ) ;
#38 = CARTESIAN_POINT ( 'NONE',  ( -18.50000000000000000, -18.75000000000000400, 0.7937499999999999600 ) ) ;
#39 = CARTESIAN_POINT ( 'NONE',  ( 17.49999999999999600, -18.75000000000000000, 0.0000000000000000000 ) ) ;
#40 = FACE_OUTER_BOUND ( 'NONE', #74, .T. ) ;
#41 = DIRECTION ( 'NONE',  ( -0.0000000000000000000, 0.0000000000000000000, -1.000000000000000000 ) ) ;
#42 = ORIENTED_EDGE ( 'NONE', *, *, #124, .F. ) ;
#43 = AXIS2_PLACEMENT_3D ( 'NONE', #200, #233, #153 ) ;
#44 = CARTESIAN_POINT ( 'NONE',  ( -17.49999999999999600, 18.75000000000000400, 0.0000000000000000000 ) ) ;
#45 = VERTEX_POINT ( 'NONE', #186 ) ;
#46 = APPLICATION_PROTOCOL_DEFINITION ( 'draft international standard', 'automotive_design', 1998, #309 ) ;
#47 = CYLINDRICAL_SURFACE ( 'NONE', #115, 1.000000000000000900 ) ;
#48 = PRESENTATION_LAYER_ASSIGNMENT (  '', '', ( #273 ) ) ;
#49 = DIRECTION ( 'NONE',  ( 1.000000000000000000, 0.0000000000000000000, 0.0000000000000000000 ) ) ;
#50 = EDGE_LOOP ( 'NONE', ( #37, #174, #42, #164 ) ) ;
#51 = ADVANCED_FACE ( 'NONE', ( #323 ), #120, .F. ) ;
#52 = PLANE ( 'NONE',  #237 ) ;
#53 = DIRECTION ( 'NONE',  ( -0.0000000000000000000, -0.0000000000000000000, 1.000000000000000000 ) ) ;
#54 = DIRECTION ( 'NONE',  ( 1.000000000000000000, 9.376883653928687400E-017, -0.0000000000000000000 ) ) ;
#55 = VECTOR ( 'NONE', #285, 1000.000000000000000 ) ;
#56 = PRODUCT_DEFINITION_CONTEXT ( 'detailed design', #173, 'design' ) ;
#57 = AXIS2_PLACEMENT_3D ( 'NONE', #178, #20, #49 ) ;
#58 = ORIENTED_EDGE ( 'NONE', *, *, #214, .T. ) ;
#59 = SURFACE_STYLE_FILL_AREA ( #308 ) ;
#60 = AXIS2_PLACEMENT_3D ( 'NONE', #191, #302, #247 ) ;
#61 = DIRECTION ( 'NONE',  ( 1.000000000000000000, 0.0000000000000000000, 0.0000000000000000000 ) ) ;
#62 = EDGE_LOOP ( 'NONE', ( #132, #229, #13, #58, #201, #36, #193, #335 ) ) ;
#63 = DIRECTION ( 'NONE',  ( 0.0000000000000000000, 0.0000000000000000000, -1.000000000000000000 ) ) ;
#64 = CARTESIAN_POINT ( 'NONE',  ( 18.50000000000000000, -18.75000000000000000, 0.7937499999999999600 ) ) ;
#65 = CARTESIAN_POINT ( 'NONE',  ( 17.49999999999999600, -18.75000000000000000, 0.7937499999999999600 ) ) ;
#66 = DIRECTION ( 'NONE',  ( 0.0000000000000000000, 1.000000000000000000, 0.0000000000000000000 ) ) ;
#67 = ORIENTED_EDGE ( 'NONE', *, *, #203, .F. ) ;
#68 = UNCERTAINTY_MEASURE_WITH_UNIT (LENGTH_MEASURE( 1.000000000000000100E-005 ), #166, 'distance_accuracy_value', 'NONE');
#69 =( NAMED_UNIT ( * ) SI_UNIT ( $, .STERADIAN. ) SOLID_ANGLE_UNIT ( ) );
#70 =( NAMED_UNIT ( * ) PLANE_ANGLE_UNIT ( ) SI_UNIT ( $, .RADIAN. ) );
#71 = PRODUCT_DEFINITION_SHAPE ( 'NONE', 'NONE',  #267 ) ;
#72 = ADVANCED_FACE ( 'NONE', ( #83 ), #294, .T. ) ;
#73 = PLANE ( 'NONE',  #297 ) ;
#74 = EDGE_LOOP ( 'NONE', ( #33, #310, #242, #4 ) ) ;
#75 = DIRECTION ( 'NONE',  ( 0.0000000000000000000, -0.0000000000000000000, 1.000000000000000000 ) ) ;
#76 = CARTESIAN_POINT ( 'NONE',  ( -18.50000000000000000, -19.75000000000000400, 0.0000000000000000000 ) ) ;
#77 = EDGE_CURVE ( 'NONE', #283, #202, #129, .T. ) ;
#78 = DIRECTION ( 'NONE',  ( 0.0000000000000000000, -0.0000000000000000000, 1.000000000000000000 ) ) ;
#79 = UNCERTAINTY_MEASURE_WITH_UNIT (LENGTH_MEASURE( 1.000000000000000100E-005 ), #224, 'distance_accuracy_value', 'NONE');
#80 = ORIENTED_EDGE ( 'NONE', *, *, #315, .T. ) ;
#81 = DIRECTION ( 'NONE',  ( 1.000000000000000000, 0.0000000000000000000, 0.0000000000000000000 ) ) ;
#82 = DIRECTION ( 'NONE',  ( -1.000000000000000000, 0.0000000000000000000, 0.0000000000000000000 ) ) ;
#83 = FACE_OUTER_BOUND ( 'NONE', #236, .T. ) ;
#84 = ORIENTED_EDGE ( 'NONE', *, *, #161, .T. ) ;
#85 = PRODUCT_RELATED_PRODUCT_CATEGORY ( 'part', '', ( #179 ) ) ;
#86 = ORIENTED_EDGE ( 'NONE', *, *, #268, .F. ) ;
#87 = VECTOR ( 'NONE', #208, 1000.000000000000000 ) ;
#88 = VERTEX_POINT ( 'NONE', #21 ) ;
#89 = DIRECTION ( 'NONE',  ( 1.000000000000000000, 0.0000000000000000000, -0.0000000000000000000 ) ) ;
#90 = ORIENTED_EDGE ( 'NONE', *, *, #142, .F. ) ;
#91 = PLANE ( 'NONE',  #219 ) ;
#92 = VECTOR ( 'NONE', #54, 1000.000000000000000 ) ;
#93 = DIRECTION ( 'NONE',  ( 1.000000000000000000, 0.0000000000000000000, 0.0000000000000000000 ) ) ;
#94 = VERTEX_POINT ( 'NONE', #255 ) ;
#95 = CARTESIAN_POINT ( 'NONE',  ( -18.50000000000000000, 18.75000000000000400, 0.0000000000000000000 ) ) ;
#96 = CARTESIAN_POINT ( 'NONE',  ( 17.49999999999999600, -19.75000000000000000, 0.7937499999999999600 ) ) ;
#97 = PRESENTATION_LAYER_ASSIGNMENT (  '', '', ( #328 ) ) ;
#98 = DIRECTION ( 'NONE',  ( -1.000000000000000000, -9.376883653928687400E-017, 0.0000000000000000000 ) ) ;
#99 = ORIENTED_EDGE ( 'NONE', *, *, #192, .T. ) ;
#100 = CARTESIAN_POINT ( 'NONE',  ( -17.49999999999999600, -19.75000000000000400, 0.7937499999999999600 ) ) ;
#101 = FACE_OUTER_BOUND ( 'NONE', #180, .T. ) ;
#102 = DIRECTION ( 'NONE',  ( 1.000000000000000000, 0.0000000000000000000, 0.0000000000000000000 ) ) ;
#103 = CYLINDRICAL_SURFACE ( 'NONE', #231, 1.000000000000000900 ) ;
#104 = DIRECTION ( 'NONE',  ( 0.0000000000000000000, 0.0000000000000000000, -1.000000000000000000 ) ) ;
#105 = DIRECTION ( 'NONE',  ( -0.0000000000000000000, -0.0000000000000000000, 1.000000000000000000 ) ) ;
#106 = CARTESIAN_POINT ( 'NONE',  ( 18.50000000000000000, -19.75000000000000000, 0.7937499999999999600 ) ) ;
#107 = ORIENTED_EDGE ( 'NONE', *, *, #142, .T. ) ;
#108 = VERTEX_POINT ( 'NONE', #95 ) ;
#109 = LINE ( 'NONE', #17, #130 ) ;
#110 = CLOSED_SHELL ( 'NONE', ( #207, #51, #232, #340, #287, #199, #72, #319, #197, #23 ) ) ;
#111 = CYLINDRICAL_SURFACE ( 'NONE', #176, 1.000000000000000900 ) ;
#112 = EDGE_CURVE ( 'NONE', #88, #94, #216, .T. ) ;
#113 = DIRECTION ( 'NONE',  ( -0.0000000000000000000, 0.0000000000000000000, -1.000000000000000000 ) ) ;
#114 = MECHANICAL_DESIGN_GEOMETRIC_PRESENTATION_REPRESENTATION (  '', ( #328 ), #149 ) ;
#115 = AXIS2_PLACEMENT_3D ( 'NONE', #177, #263, #198 ) ;
#116 = CARTESIAN_POINT ( 'NONE',  ( -17.49999999999999600, 19.74999999999999600, 0.0000000000000000000 ) ) ;
#117 = DIRECTION ( 'NONE',  ( 1.000000000000000000, 0.0000000000000000000, 0.0000000000000000000 ) ) ;
#118 = DIRECTION ( 'NONE',  ( -0.0000000000000000000, -1.000000000000000000, -0.0000000000000000000 ) ) ;
#119 = CIRCLE ( 'NONE', #314, 1.000000000000000900 ) ;
#120 = PLANE ( 'NONE',  #298 ) ;
#121 = VERTEX_POINT ( 'NONE', #262 ) ;
#122 = UNCERTAINTY_MEASURE_WITH_UNIT (LENGTH_MEASURE( 1.000000000000000100E-005 ), #139, 'distance_accuracy_value', 'NONE');
#123 = CARTESIAN_POINT ( 'NONE',  ( 18.50000000000000000, -19.75000000000000000, 0.7937499999999999600 ) ) ;
#124 = EDGE_CURVE ( 'NONE', #94, #135, #189, .T. ) ;
#125 = CARTESIAN_POINT ( 'NONE',  ( 0.0000000000000000000, 0.0000000000000000000, 0.0000000000000000000 ) ) ;
#126 = VERTEX_POINT ( 'NONE', #206 ) ;
#127 = DIRECTION ( 'NONE',  ( -0.0000000000000000000, 0.0000000000000000000, -1.000000000000000000 ) ) ;
#128 = DIRECTION ( 'NONE',  ( 0.0000000000000000000, 0.0000000000000000000, 1.000000000000000000 ) ) ;
#129 = LINE ( 'NONE', #318, #162 ) ;
#130 = VECTOR ( 'NONE', #53, 1000.000000000000000 ) ;
#131 =( GEOMETRIC_REPRESENTATION_CONTEXT ( 3 ) GLOBAL_UNCERTAINTY_ASSIGNED_CONTEXT ( ( #79 ) ) GLOBAL_UNIT_ASSIGNED_CONTEXT ( ( #224, #196, #69 ) ) REPRESENTATION_CONTEXT ( 'NONE', 'WORKASPACE' ) );
#132 = ORIENTED_EDGE ( 'NONE', *, *, #24, .F. ) ;
#133 = AXIS2_PLACEMENT_3D ( 'NONE', #39, #41, #61 ) ;
#134 = EDGE_CURVE ( 'NONE', #108, #45, #342, .T. ) ;
#135 = VERTEX_POINT ( 'NONE', #258 ) ;
#136 = LINE ( 'NONE', #64, #34 ) ;
#137 = COLOUR_RGB ( '',1.000000000000000000, 1.000000000000000000, 1.000000000000000000 ) ;
#138 = ORIENTED_EDGE ( 'NONE', *, *, #248, .F. ) ;
#139 =( LENGTH_UNIT ( ) NAMED_UNIT ( * ) SI_UNIT ( .MILLI., .METRE. ) );
#140 = DIRECTION ( 'NONE',  ( 0.0000000000000000000, 0.0000000000000000000, -1.000000000000000000 ) ) ;
#141 = DIRECTION ( 'NONE',  ( -0.0000000000000000000, -0.0000000000000000000, 1.000000000000000000 ) ) ;
#142 = EDGE_CURVE ( 'NONE', #226, #157, #241, .T. ) ;
#143 = CARTESIAN_POINT ( 'NONE',  ( -17.49999999999999600, -18.75000000000000400, 0.7937499999999999600 ) ) ;
#144 = ORIENTED_EDGE ( 'NONE', *, *, #112, .T. ) ;
#145 = CIRCLE ( 'NONE', #243, 1.000000000000000900 ) ;
#146 = CARTESIAN_POINT ( 'NONE',  ( -17.49999999999999600, 19.74999999999999600, 0.7937499999999999600 ) ) ;
#147 = FACE_OUTER_BOUND ( 'NONE', #62, .T. ) ;
#148 = VERTEX_POINT ( 'NONE', #317 ) ;
#149 =( GEOMETRIC_REPRESENTATION_CONTEXT ( 3 ) GLOBAL_UNCERTAINTY_ASSIGNED_CONTEXT ( ( #68 ) ) GLOBAL_UNIT_ASSIGNED_CONTEXT ( ( #166, #326, #245 ) ) REPRESENTATION_CONTEXT ( 'NONE', 'WORKASPACE' ) );
#150 = EDGE_CURVE ( 'NONE', #126, #301, #281, .T. ) ;
#151 = DIRECTION ( 'NONE',  ( 1.000000000000000000, 0.0000000000000000000, -0.0000000000000000000 ) ) ;
#152 = ORIENTED_EDGE ( 'NONE', *, *, #315, .F. ) ;
#153 = DIRECTION ( 'NONE',  ( -1.000000000000000000, 0.0000000000000000000, 0.0000000000000000000 ) ) ;
#154 = CARTESIAN_POINT ( 'NONE',  ( 18.50000000000000000, -19.75000000000000000, 0.7937499999999999600 ) ) ;
#155 = LINE ( 'NONE', #29, #87 ) ;
#156 = VERTEX_POINT ( 'NONE', #181 ) ;
#157 = VERTEX_POINT ( 'NONE', #96 ) ;
#158 = DIRECTION ( 'NONE',  ( -9.376883653928687400E-017, 1.000000000000000000, 0.0000000000000000000 ) ) ;
#159 = ORIENTED_EDGE ( 'NONE', *, *, #260, .F. ) ;
#160 = CIRCLE ( 'NONE', #187, 1.000000000000000900 ) ;
#161 = EDGE_CURVE ( 'NONE', #148, #108, #28, .T. ) ;
#162 = VECTOR ( 'NONE', #26, 1000.000000000000000 ) ;
#163 = ORIENTED_EDGE ( 'NONE', *, *, #337, .T. ) ;
#164 = ORIENTED_EDGE ( 'NONE', *, *, #291, .T. ) ;
#165 = EDGE_CURVE ( 'NONE', #126, #121, #300, .T. ) ;
#166 =( LENGTH_UNIT ( ) NAMED_UNIT ( * ) SI_UNIT ( .MILLI., .METRE. ) );
#167 = VECTOR ( 'NONE', #66, 1000.000000000000000 ) ;
#168 = CIRCLE ( 'NONE', #256, 1.000000000000000900 ) ;
#169 = DIRECTION ( 'NONE',  ( 0.0000000000000000000, -0.0000000000000000000, 1.000000000000000000 ) ) ;
#170 = COLOUR_RGB ( '',1.000000000000000000, 1.000000000000000000, 1.000000000000000000 ) ;
#171 = CARTESIAN_POINT ( 'NONE',  ( 0.0000000000000000000, 0.0000000000000000000, 0.0000000000000000000 ) ) ;
#172 = VECTOR ( 'NONE', #334, 1000.000000000000000 ) ;
#173 = APPLICATION_CONTEXT ( 'automotive_design' ) ;
#174 = ORIENTED_EDGE ( 'NONE', *, *, #324, .T. ) ;
#175 = LINE ( 'NONE', #184, #167 ) ;
#176 = AXIS2_PLACEMENT_3D ( 'NONE', #331, #63, #330 ) ;
#177 = CARTESIAN_POINT ( 'NONE',  ( 17.49999999999999600, 18.75000000000000000, 0.7937499999999999600 ) ) ;
#178 = CARTESIAN_POINT ( 'NONE',  ( 17.49999999999999600, 18.75000000000000000, 0.0000000000000000000 ) ) ;
#179 = PRODUCT ( 'CT_PNS3004', 'CT_PNS3004', '', ( #332 ) ) ;
#180 = EDGE_LOOP ( 'NONE', ( #1, #86, #322, #299 ) ) ;
#181 = CARTESIAN_POINT ( 'NONE',  ( 18.50000000000000000, -18.75000000000000000, 0.7937499999999999600 ) ) ;
#182 = LINE ( 'NONE', #218, #316 ) ;
#183 = CARTESIAN_POINT ( 'NONE',  ( -18.50000000000000000, 18.75000000000000400, 0.7937499999999999600 ) ) ;
#184 = CARTESIAN_POINT ( 'NONE',  ( 18.50000000000000000, -19.75000000000000000, 0.0000000000000000000 ) ) ;
#185 = ORIENTED_EDGE ( 'NONE', *, *, #324, .F. ) ;
#186 = CARTESIAN_POINT ( 'NONE',  ( -18.50000000000000000, -18.75000000000000400, 0.0000000000000000000 ) ) ;
#187 = AXIS2_PLACEMENT_3D ( 'NONE', #143, #277, #117 ) ;
#188 = VECTOR ( 'NONE', #140, 1000.000000000000000 ) ;
#189 = LINE ( 'NONE', #204, #35 ) ;
#190 = DIRECTION ( 'NONE',  ( 1.000000000000000000, 0.0000000000000000000, 0.0000000000000000000 ) ) ;
#191 = CARTESIAN_POINT ( 'NONE',  ( 18.50000000000000000, 19.75000000000000000, 0.7937499999999999600 ) ) ;
#192 = EDGE_CURVE ( 'NONE', #226, #283, #266, .T. ) ;
#193 = ORIENTED_EDGE ( 'NONE', *, *, #150, .F. ) ;
#194 = SURFACE_STYLE_USAGE ( .BOTH. , #16 ) ;
#195 = DIRECTION ( 'NONE',  ( -1.000000000000000000, -9.376883653928687400E-017, 0.0000000000000000000 ) ) ;
#196 =( NAMED_UNIT ( * ) PLANE_ANGLE_UNIT ( ) SI_UNIT ( $, .RADIAN. ) );
#197 = ADVANCED_FACE ( 'NONE', ( #209 ), #103, .T. ) ;
#198 = DIRECTION ( 'NONE',  ( -1.000000000000000000, 0.0000000000000000000, 0.0000000000000000000 ) ) ;
#199 = ADVANCED_FACE ( 'NONE', ( #147 ), #73, .F. ) ;
#200 = CARTESIAN_POINT ( 'NONE',  ( 17.49999999999999600, -18.75000000000000000, 0.7937499999999999600 ) ) ;
#201 = ORIENTED_EDGE ( 'NONE', *, *, #134, .F. ) ;
#202 = VERTEX_POINT ( 'NONE', #22 ) ;
#203 = EDGE_CURVE ( 'NONE', #135, #148, #234, .T. ) ;
#204 = CARTESIAN_POINT ( 'NONE',  ( 18.50000000000000000, 19.75000000000000000, 0.7937499999999999600 ) ) ;
#205 = ORIENTED_EDGE ( 'NONE', *, *, #260, .T. ) ;
#206 = CARTESIAN_POINT ( 'NONE',  ( 17.49999999999999600, 19.75000000000000000, 0.0000000000000000000 ) ) ;
#207 = ADVANCED_FACE ( 'NONE', ( #223 ), #52, .F. ) ;
#208 = DIRECTION ( 'NONE',  ( 0.0000000000000000000, 1.000000000000000000, 0.0000000000000000000 ) ) ;
#209 = FACE_OUTER_BOUND ( 'NONE', #311, .T. ) ;
#210 =( GEOMETRIC_REPRESENTATION_CONTEXT ( 3 ) GLOBAL_UNCERTAINTY_ASSIGNED_CONTEXT ( ( #122 ) ) GLOBAL_UNIT_ASSIGNED_CONTEXT ( ( #139, #70, #253 ) ) REPRESENTATION_CONTEXT ( 'NONE', 'WORKASPACE' ) );
#211 = ORIENTED_EDGE ( 'NONE', *, *, #24, .T. ) ;
#212 = ORIENTED_EDGE ( 'NONE', *, *, #124, .T. ) ;
#213 = ORIENTED_EDGE ( 'NONE', *, *, #337, .F. ) ;
#214 = EDGE_CURVE ( 'NONE', #283, #45, #119, .T. ) ;
#215 = FACE_OUTER_BOUND ( 'NONE', #222, .T. ) ;
#216 = CIRCLE ( 'NONE', #275, 1.000000000000000900 ) ;
#217 = CARTESIAN_POINT ( 'NONE',  ( 0.0000000000000000000, 0.0000000000000000000, 0.7937499999999999600 ) ) ;
#218 = CARTESIAN_POINT ( 'NONE',  ( -18.50000000000000000, -19.75000000000000400, 0.7937499999999999600 ) ) ;
#219 = AXIS2_PLACEMENT_3D ( 'NONE', #217, #305, #89 ) ;
#220 = EDGE_CURVE ( 'NONE', #202, #157, #325, .T. ) ;
#221 = CARTESIAN_POINT ( 'NONE',  ( 18.50000000000000000, -18.75000000000000000, 0.0000000000000000000 ) ) ;
#222 = EDGE_LOOP ( 'NONE', ( #107, #163, #257, #144, #212, #304, #80, #239 ) ) ;
#223 = FACE_OUTER_BOUND ( 'NONE', #252, .T. ) ;
#224 =( LENGTH_UNIT ( ) NAMED_UNIT ( * ) SI_UNIT ( .MILLI., .METRE. ) );
#225 = APPLICATION_PROTOCOL_DEFINITION ( 'draft international standard', 'automotive_design', 1998, #173 ) ;
#226 = VERTEX_POINT ( 'NONE', #321 ) ;
#227 = CARTESIAN_POINT ( 'NONE',  ( 18.50000000000000000, 19.75000000000000000, 0.0000000000000000000 ) ) ;
#228 = CARTESIAN_POINT ( 'NONE',  ( -17.49999999999999600, 18.75000000000000400, 0.7937499999999999600 ) ) ;
#229 = ORIENTED_EDGE ( 'NONE', *, *, #248, .T. ) ;
#230 = FACE_OUTER_BOUND ( 'NONE', #50, .T. ) ;
#231 = AXIS2_PLACEMENT_3D ( 'NONE', #284, #313, #289 ) ;
#232 = ADVANCED_FACE ( 'NONE', ( #15 ), #295, .F. ) ;
#233 = DIRECTION ( 'NONE',  ( 0.0000000000000000000, 0.0000000000000000000, -1.000000000000000000 ) ) ;
#234 = CIRCLE ( 'NONE', #259, 1.000000000000000900 ) ;
#235 = ORIENTED_EDGE ( 'NONE', *, *, #329, .F. ) ;
#236 = EDGE_LOOP ( 'NONE', ( #213, #341, #138, #159 ) ) ;
#237 = AXIS2_PLACEMENT_3D ( 'NONE', #336, #265, #104 ) ;
#238 = EDGE_CURVE ( 'NONE', #156, #88, #155, .T. ) ;
#239 = ORIENTED_EDGE ( 'NONE', *, *, #306, .T. ) ;
#240 = PRESENTATION_STYLE_ASSIGNMENT (( #194 ) ) ;
#241 = LINE ( 'NONE', #123, #92 ) ;
#242 = ORIENTED_EDGE ( 'NONE', *, *, #165, .F. ) ;
#243 = AXIS2_PLACEMENT_3D ( 'NONE', #44, #113, #12 ) ;
#244 = CARTESIAN_POINT ( 'NONE',  ( 17.49999999999999600, 19.75000000000000000, 0.7937499999999999600 ) ) ;
#245 =( NAMED_UNIT ( * ) SI_UNIT ( $, .STERADIAN. ) SOLID_ANGLE_UNIT ( ) );
#246 = ORIENTED_EDGE ( 'NONE', *, *, #238, .F. ) ;
#247 = DIRECTION ( 'NONE',  ( 1.000000000000000000, 9.376883653928687400E-017, 0.0000000000000000000 ) ) ;
#248 = EDGE_CURVE ( 'NONE', #272, #202, #270, .T. ) ;
#249 = FILL_AREA_STYLE_COLOUR ( '', #137 ) ;
#250 = MANIFOLD_SOLID_BREP ( 'Fillet1', #110 ) ;
#251 = DIRECTION ( 'NONE',  ( 0.0000000000000000000, 0.0000000000000000000, 1.000000000000000000 ) ) ;
#252 = EDGE_LOOP ( 'NONE', ( #8, #269, #152, #84 ) ) ;
#253 =( NAMED_UNIT ( * ) SI_UNIT ( $, .STERADIAN. ) SOLID_ANGLE_UNIT ( ) );
#254 = VECTOR ( 'NONE', #98, 1000.000000000000000 ) ;
#255 = CARTESIAN_POINT ( 'NONE',  ( 17.49999999999999600, 19.75000000000000000, 0.7937499999999999600 ) ) ;
#256 = AXIS2_PLACEMENT_3D ( 'NONE', #65, #169, #190 ) ;
#257 = ORIENTED_EDGE ( 'NONE', *, *, #238, .T. ) ;
#258 = CARTESIAN_POINT ( 'NONE',  ( -17.49999999999999600, 19.74999999999999600, 0.7937499999999999600 ) ) ;
#259 = AXIS2_PLACEMENT_3D ( 'NONE', #228, #286, #339 ) ;
#260 = EDGE_CURVE ( 'NONE', #156, #272, #136, .T. ) ;
#261 = DIRECTION ( 'NONE',  ( -0.0000000000000000000, -1.000000000000000000, -0.0000000000000000000 ) ) ;
#262 = CARTESIAN_POINT ( 'NONE',  ( 18.50000000000000000, 18.75000000000000000, 0.0000000000000000000 ) ) ;
#263 = DIRECTION ( 'NONE',  ( 0.0000000000000000000, 0.0000000000000000000, -1.000000000000000000 ) ) ;
#264 = LINE ( 'NONE', #244, #188 ) ;
#265 = DIRECTION ( 'NONE',  ( 1.000000000000000000, 0.0000000000000000000, 0.0000000000000000000 ) ) ;
#266 = LINE ( 'NONE', #100, #55 ) ;
#267 = PRODUCT_DEFINITION ( 'UNKNOWN', '', #32, #56 ) ;
#268 = EDGE_CURVE ( 'NONE', #45, #18, #290, .T. ) ;
#269 = ORIENTED_EDGE ( 'NONE', *, *, #268, .T. ) ;
#270 = CIRCLE ( 'NONE', #133, 1.000000000000000900 ) ;
#271 = EDGE_LOOP ( 'NONE', ( #296, #31, #90, #99 ) ) ;
#272 = VERTEX_POINT ( 'NONE', #221 ) ;
#273 = STYLED_ITEM ( 'NONE', ( #240 ), #2 ) ;
#274 = AXIS2_PLACEMENT_3D ( 'NONE', #154, #82, #128 ) ;
#275 = AXIS2_PLACEMENT_3D ( 'NONE', #282, #78, #102 ) ;
#276 = CARTESIAN_POINT ( 'NONE',  ( -17.49999999999999600, -19.75000000000000400, 0.0000000000000000000 ) ) ;
#277 = DIRECTION ( 'NONE',  ( 0.0000000000000000000, -0.0000000000000000000, 1.000000000000000000 ) ) ;
#278 = VECTOR ( 'NONE', #141, 1000.000000000000000 ) ;
#279 = FILL_AREA_STYLE_COLOUR ( '', #170 ) ;
#280 = FILL_AREA_STYLE ('',( #279 ) ) ;
#281 = LINE ( 'NONE', #227, #254 ) ;
#282 = CARTESIAN_POINT ( 'NONE',  ( 17.49999999999999600, 18.75000000000000000, 0.7937499999999999600 ) ) ;
#283 = VERTEX_POINT ( 'NONE', #276 ) ;
#284 = CARTESIAN_POINT ( 'NONE',  ( -17.49999999999999600, 18.75000000000000400, 0.7937499999999999600 ) ) ;
#285 = DIRECTION ( 'NONE',  ( 0.0000000000000000000, 0.0000000000000000000, -1.000000000000000000 ) ) ;
#286 = DIRECTION ( 'NONE',  ( 0.0000000000000000000, -0.0000000000000000000, 1.000000000000000000 ) ) ;
#287 = ADVANCED_FACE ( 'NONE', ( #215 ), #91, .T. ) ;
#288 = ORIENTED_EDGE ( 'NONE', *, *, #161, .F. ) ;
#289 = DIRECTION ( 'NONE',  ( -1.000000000000000000, 0.0000000000000000000, 0.0000000000000000000 ) ) ;
#290 = LINE ( 'NONE', #38, #5 ) ;
#291 = EDGE_CURVE ( 'NONE', #94, #126, #264, .T. ) ;
#292 = SURFACE_STYLE_FILL_AREA ( #280 ) ;
#293 = CARTESIAN_POINT ( 'NONE',  ( -17.49999999999999600, -18.75000000000000400, 0.0000000000000000000 ) ) ;
#294 = CYLINDRICAL_SURFACE ( 'NONE', #43, 1.000000000000000900 ) ;
#295 = PLANE ( 'NONE',  #274 ) ;
#296 = ORIENTED_EDGE ( 'NONE', *, *, #77, .T. ) ;
#297 = AXIS2_PLACEMENT_3D ( 'NONE', #125, #75, #151 ) ;
#298 = AXIS2_PLACEMENT_3D ( 'NONE', #106, #158, #195 ) ;
#299 = ORIENTED_EDGE ( 'NONE', *, *, #192, .F. ) ;
#300 = CIRCLE ( 'NONE', #57, 1.000000000000000900 ) ;
#301 = VERTEX_POINT ( 'NONE', #116 ) ;
#302 = DIRECTION ( 'NONE',  ( 9.376883653928687400E-017, -1.000000000000000000, 0.0000000000000000000 ) ) ;
#303 = PLANE ( 'NONE',  #60 ) ;
#304 = ORIENTED_EDGE ( 'NONE', *, *, #203, .T. ) ;
#305 = DIRECTION ( 'NONE',  ( 0.0000000000000000000, -0.0000000000000000000, 1.000000000000000000 ) ) ;
#306 = EDGE_CURVE ( 'NONE', #18, #226, #160, .T. ) ;
#307 = VECTOR ( 'NONE', #105, 1000.000000000000000 ) ;
#308 = FILL_AREA_STYLE ('',( #249 ) ) ;
#309 = APPLICATION_CONTEXT ( 'automotive_design' ) ;
#310 = ORIENTED_EDGE ( 'NONE', *, *, #3, .F. ) ;
#311 = EDGE_LOOP ( 'NONE', ( #67, #185, #235, #288 ) ) ;
#312 = AXIS2_PLACEMENT_3D ( 'NONE', #171, #251, #93 ) ;
#313 = DIRECTION ( 'NONE',  ( 0.0000000000000000000, 0.0000000000000000000, -1.000000000000000000 ) ) ;
#314 = AXIS2_PLACEMENT_3D ( 'NONE', #293, #127, #81 ) ;
#315 = EDGE_CURVE ( 'NONE', #148, #18, #182, .T. ) ;
#316 = VECTOR ( 'NONE', #118, 1000.000000000000000 ) ;
#317 = CARTESIAN_POINT ( 'NONE',  ( -18.50000000000000000, 18.75000000000000400, 0.7937499999999999600 ) ) ;
#318 = CARTESIAN_POINT ( 'NONE',  ( 18.50000000000000000, -19.75000000000000000, 0.0000000000000000000 ) ) ;
#319 = ADVANCED_FACE ( 'NONE', ( #101 ), #111, .T. ) ;
#320 = CARTESIAN_POINT ( 'NONE',  ( 17.49999999999999600, -19.75000000000000000, 0.7937499999999999600 ) ) ;
#321 = CARTESIAN_POINT ( 'NONE',  ( -17.49999999999999600, -19.75000000000000400, 0.7937499999999999600 ) ) ;
#322 = ORIENTED_EDGE ( 'NONE', *, *, #214, .F. ) ;
#323 = FACE_OUTER_BOUND ( 'NONE', #271, .T. ) ;
#324 = EDGE_CURVE ( 'NONE', #301, #135, #25, .T. ) ;
#325 = LINE ( 'NONE', #320, #307 ) ;
#326 =( NAMED_UNIT ( * ) PLANE_ANGLE_UNIT ( ) SI_UNIT ( $, .RADIAN. ) );
#327 = SURFACE_SIDE_STYLE ('',( #59 ) ) ;
#328 = STYLED_ITEM ( 'NONE', ( #333 ), #250 ) ;
#329 = EDGE_CURVE ( 'NONE', #108, #301, #145, .T. ) ;
#330 = DIRECTION ( 'NONE',  ( -1.000000000000000000, 0.0000000000000000000, 0.0000000000000000000 ) ) ;
#331 = CARTESIAN_POINT ( 'NONE',  ( -17.49999999999999600, -18.75000000000000400, 0.7937499999999999600 ) ) ;
#332 = PRODUCT_CONTEXT ( 'NONE', #309, 'mechanical' ) ;
#333 = PRESENTATION_STYLE_ASSIGNMENT (( #11 ) ) ;
#334 = DIRECTION ( 'NONE',  ( 0.0000000000000000000, 0.0000000000000000000, -1.000000000000000000 ) ) ;
#335 = ORIENTED_EDGE ( 'NONE', *, *, #165, .T. ) ;
#336 = CARTESIAN_POINT ( 'NONE',  ( -18.50000000000000000, -19.75000000000000400, 0.7937499999999999600 ) ) ;
#337 = EDGE_CURVE ( 'NONE', #157, #156, #168, .T. ) ;
#338 = DIRECTION ( 'NONE',  ( -1.000000000000000000, -9.376883653928687400E-017, 0.0000000000000000000 ) ) ;
#339 = DIRECTION ( 'NONE',  ( 1.000000000000000000, 0.0000000000000000000, 0.0000000000000000000 ) ) ;
#340 = ADVANCED_FACE ( 'NONE', ( #230 ), #303, .F. ) ;
#341 = ORIENTED_EDGE ( 'NONE', *, *, #220, .F. ) ;
#342 = LINE ( 'NONE', #76, #6 ) ;
ENDSEC;
END-ISO-10303-21;
